INDEX VERSION 1.127+/home/mamadian/M2/IDMPROJECT/IDM/.metadata/.plugins/org.eclipse.jdt.core
625318144.index
2101824995.index
2630498905.index
2450266877.index
647911472.index
1913109094.index
2982549800.index
996430922.index
22368343.index
380405267.index
3361523464.index
1574816501.index
991272370.index
1461272541.index
2560761850.index
3688212371.index
1934285507.index
578595087.index
449419655.index
74637793.index
2781889852.index
1932949083.index
2076662406.index
817237847.index
2771403403.index
2066489604.index
3214207201.index
1730585743.index
46282419.index
1351481320.index
4242049791.index
3320696411.index
1024943516.index
438084206.index
652941823.index
579204483.index
733660583.index
202222561.index
3895581729.index
3721837726.index
3127659369.index
633332210.index
2884042288.index
2904909885.index
2561925485.index
1879359498.index
1499312574.index
3294576178.index
2597732637.index
2154192992.index
3511663731.index
2202664167.index
2722372146.index
876727500.index
4197322112.index
742522455.index
1510100340.index
2970113061.index
2123373667.index
3564561781.index
1108982740.index
120211678.index
2105320935.index
1869021276.index
496036142.index
475267113.index
2982035129.index
3458594438.index
2841451250.index
1151670768.index
3476899949.index
3574825083.index
1064569109.index
2311946636.index
3768111005.index
1504574876.index
2567054362.index
3163162671.index
2103379638.index
3808971334.index
2958332342.index
1758576084.index
3005162901.index
3244148670.index
3659521052.index
2233963263.index
3885805113.index
3324998633.index
1449816331.index
3803434514.index
1952815757.index
3262353630.index
3295211270.index
1710728211.index
3092578477.index
1291188434.index
527624335.index
2056196969.index
3888198363.index
1597458667.index
2801640244.index
2197034140.index
1691397937.index
